<?xml version="1.0" encoding="UTF-8" standalone="no"?>
<svg
   viewBox="0 0 640 512"
   version="1.1"
   id="svg4"
   sodipodi:docname="eskool-nsi.svg"
   inkscape:version="1.1.1 (3bf5ae0d25, 2021-09-20, custom)"
   xmlns:inkscape="http://www.inkscape.org/namespaces/inkscape"
   xmlns:sodipodi="http://sodipodi.sourceforge.net/DTD/sodipodi-0.dtd"
   xmlns="http://www.w3.org/2000/svg"
   xmlns:svg="http://www.w3.org/2000/svg">
  <defs
     id="defs8" />
  <sodipodi:namedview
     id="namedview6"
     pagecolor="#ffffff"
     bordercolor="#666666"
     borderopacity="1.0"
     inkscape:pageshadow="2"
     inkscape:pageopacity="0.0"
     inkscape:pagecheckerboard="0"
     showgrid="false"
     inkscape:zoom="1"
     inkscape:cx="286.5"
     inkscape:cy="256"
     inkscape:window-width="1880"
     inkscape:window-height="2130"
     inkscape:window-x="71"
     inkscape:window-y="0"
     inkscape:window-maximized="0"
     inkscape:current-layer="layer3" />
  <g
     inkscape:groupmode="layer"
     id="layer4"
     inkscape:label="chapeau">
    <path
       fill="currentColor"
       d="M 518.17963,298.05764 385.43887,242.53358 c -7.23331,-3.02564 -15.03767,-3.02564 -22.26622,0 l -132.74551,55.52406 c -11.20212,4.68424 -11.20212,24.85302 0,29.53725 l 23.14183,9.67946 c -5.07759,8.54565 -8.19934,18.97018 -8.50866,30.38598 -4.58268,3.57635 -7.80912,10.02932 -7.80912,17.73272 0,6.98424 2.70298,12.86059 6.59564,16.61834 l -12.1491,74.42946 c -1.05645,6.47241 2.56021,12.61439 7.42841,12.61439 h 26.70139 c 4.87296,0 8.48962,-6.14198 7.43317,-12.61439 l -12.1491,-74.42946 c 3.89266,-3.75775 6.59564,-9.6341 6.59564,-16.61834 0,-7.49608 -3.07892,-13.76764 -7.45222,-17.40877 0.36167,-9.73129 4.01639,-18.33526 9.84587,-23.79048 l 93.067,38.93164 c 4.31143,1.80113 12.58215,4.0493 22.26622,0 l 132.74552,-55.52407 c 11.20687,-4.69071 11.20687,-24.85301 0,-29.54373 z M 389.90734,402.94435 c -13.57673,5.67551 -25.14527,2.53973 -31.21268,0 l -69.01149,-28.86344 -6.74791,73.50945 c 0,22.90287 40.90627,41.46488 91.36812,41.46488 50.46186,0 91.36813,-18.56201 91.36813,-41.46488 l -6.74792,-73.51593 z"
       id="path2"
       style="stroke-width:0.555261" />
  </g>
  <g
     inkscape:groupmode="layer"
     id="layer3"
     inkscape:label="ordi"
     style="display:inline">
    <path
       d="m 224.0234,161.87958 c 3.2991,1.93727 6.75369,0.50677 7.71744,-3.19569 l 1.74398,-6.69998 c 0.96375,-3.70245 -0.92881,-8.27291 -4.22791,-10.21018 l -18.85308,-11.06743 5.50457,-21.15889 c 0.96376,-3.70247 -0.92881,-8.27292 -4.22791,-10.2102 l -5.97001,-3.5057 c -3.29909,-1.93728 -6.7537,-0.50677 -7.71744,3.19569 l -8.99596,34.56027 c -0.96374,3.70246 0.92882,8.27291 4.22791,10.2102 z m 30.63081,-18.65636 5.97004,3.50571 c 3.29908,1.93727 6.75368,0.50676 7.71742,-3.19569 l 8.99596,-34.56027 c 0.96376,-3.70246 -0.92881,-8.27291 -4.22791,-10.21019 l -30.795,-18.083331 c -3.29909,-1.937278 -6.7537,-0.506779 -7.71743,3.195684 l -1.74399,6.699977 c -0.96373,3.70247 0.92882,8.27291 4.22791,10.21019 l 18.84967,11.06883 -5.50458,21.1589 c -0.96373,3.70246 0.92883,8.27292 4.22791,10.21019 z m 124.03459,36.19188 -82.68529,34.23893 c 3.4487,9.04236 0.96197,16.51501 -5.18673,19.06111 l -20.73441,8.58585 c -6.37378,2.6393 -14.52458,-3.21918 -17.15392,-9.81012 l -81.58377,33.78279 c -3.00104,1.2427 -4.11127,5.50793 -2.46719,9.4783 l 2.98925,7.21887 c 6.57633,15.88152 21.77852,24.8085 33.78266,19.83774 l 174.60558,-72.30194 c 12.00413,-4.97076 16.44505,-22.03171 9.86872,-37.91322 l -2.98924,-7.21887 c -1.64408,-3.97038 -5.44463,-6.20212 -8.44566,-4.95944 z M 293.56697,20.159433 C 288.63473,8.2482994 277.23307,1.5530644 268.22996,5.2811364 L 126.36295,64.026461 c -9.0031,3.728062 -12.3338,16.523771 -7.40155,28.434909 l 62.77407,151.59625 174.60557,-72.30195 z M 322.55838,151.91794 191.60419,206.14439 143.77634,90.64249 274.73052,36.416045 Z"
       id="path2-6"
       style="stroke-width:0.424555"
       inkscape:transform-center-x="55.140351"
       inkscape:transform-center-y="150.64593" />
  </g>
</svg>
